Basic Coding With R
…
A useful package for selection rows and columns (and doing a lot more) is dplyr, which you installed in the last section. I recommend checking out this introduction to dplyr, or this one, or this one. Here, well practice a few simple commands.

One of the nice things about dplyr is that it simplifies syntax so it is easier to read. In order to do that, it uses something called a pipe, which is denote %>%. The pipe works by taking the function to the right and applying it to the object on the right. Its easier to see in practice below.

The first is filter(). This lets us choose specific rows according to some criterion. For instance, if we want to choose data for only Bulls players, wed use:

players %>% # take the players data
  filter(tm == "CHI") # and filter out anybody whose tm is not "CHI"

## # A tibble: 21 x 31
##       rk player pos     age tm        g    gs    mp    fg   fga fgpercent
##    <dbl> <chr>  <chr> <dbl> <chr> <dbl> <dbl> <dbl> <dbl> <dbl>     <dbl>
##  1    19 Ryan  PG       23 CHI      24     0  12.7   0.7   1.7     0.415
##  2    23 Omer  C        31 CHI       4     0  15.3   0.5   1.5     0.333
##  3    51 Anton SG       21 CHI      19     0  16.5   2.8   7.5     0.371
##  4   142 Kris  PG       23 CHI      52    43  29.3   5.5  12.8     0.429
##  5   144 Jarel SF       26 CHI       1     0   3     0     1       0    
##  6   156 Kay F PG       22 CHI      14     0   9.6   1.4   4.7     0.303
##  7   157 Crist C        25 CHI      55    16  17.8   2.3   3.9     0.591
##  8   184 Jeria PG       25 CHI      74    26  22.8   2.8   6.8     0.416
##  9   221 Justi SG       28 CHI      72    72  31.5   4    10.9     0.371
## 10   274 Sean  SG       28 CHI       9     1  23.8   5.2  11.9     0.439
## #  with 11 more rows, and 20 more variables: x3p <dbl>, x3pa <dbl>,
## #   x3ppercent <dbl>, x2p <dbl>, x2pa <dbl>, x2ppercent <dbl>,
## #   efgpercent <dbl>, ft <dbl>, fta <dbl>, ftpercent <dbl>, orb <dbl>,
## #   drb <dbl>, trb <dbl>, ast <dbl>, stl <dbl>, blk <dbl>, tov <dbl>,
## #   pf <dbl>, ps_g <dbl>, link <chr>

Here, the syntax says, take the data frame called players, and filter out only the relevant rows (team is the Bulls or tm == CHI). Note that tm is the column in players that has a players team.

The second is select(), which allows us to choose specific columns by name:

players %>%
  filter(tm == "CHI") %>%
  select(player, ps_g, stl, blk, trb, fgpercent)

## # A tibble: 21 x 6
##    player             ps_g   stl   blk   trb fgpercent
##    <chr>             <dbl> <dbl> <dbl> <dbl>     <dbl>
##  1 Ryan Arcidiacono    2     0.5   0     1       0.415
##  2 Omer Asik           1     0.3   0.5   2.5     0.333
##  3 Antonio Blakeney    7.9   0.4   0.1   1.7     0.371
##  4 Kris Dunn          13.4   2     0.5   4.3     0.429
##  5 Jarell Eddie        0     0     0     0       0    
##  6 Kay Felder          3.9   0.2   0.1   1       0.303
##  7 Cristiano Felicio   5.6   0.3   0.2   4.2     0.591
##  8 Jerian Grant        8.4   0.9   0.1   2.3     0.416
##  9 Justin Holiday     12.2   1.1   0.4   4       0.371
## 10 Sean Kilpatrick    15.4   0.7   0.3   2.8     0.439
## #  with 11 more rows
…
