OPOY Predictions
…
Finally, we can see from the position field pos that this data contains everyone who ever attempted to run in a game. Further, some of the positions are a little wonky. So, we should filter out folks who only had a few carries (i.e., fewer than 15 or 20).

rush <- rush %>%
  filter(att > 20) %>%
  mutate(pos = toupper(pos)) # get rid of weird capitalizaiton rules

# There are some odd position alignments that we may need to deal with later
rush %>% distinct(pos)

## # A tibble: 29 x 1
##    pos     
##    <chr>   
##  1 RB      
##  2 FB      
##  3 FB/RB   
##  4 PR/RB   
##  5 KR      
##  6 <NA>    
##  7 KR/PR/RB
##  8 QB      
##  9 KR/RB   
## 10 FB/PR   
## #  with 19 more rows
…
